%YAML 1.1
%TAG !u! tag:unity3d.com,2011:
--- !u!21 &2100000
Material:
  serializedVersion: 6
  m_ObjectHideFlags: 0
  m_CorrespondingSourceObject: {fileID: 0}
  m_PrefabInstance: {fileID: 0}
  m_PrefabAsset: {fileID: 0}
  m_Name: VaxKun_WaterShader v2
  m_Shader: {fileID: 4800000, guid: 71263bb00c00c644f8dd047fee52ae87, type: 3}
  m_ShaderKeywords: _ISSPECULARNORMALINTENSITY_ON _LIGHTS_ON _MAINFOAMPOWER_ON _NODE_7898_ON
    _VERTEXOFFSET_ON
  m_LightmapFlags: 4
  m_EnableInstancingVariants: 0
  m_DoubleSidedGI: 0
  m_CustomRenderQueue: -1
  stringTagMap: {}
  disabledShaderPasses: []
  m_SavedProperties:
    serializedVersion: 3
    m_TexEnvs:
    - _FoamTexture:
        m_Texture: {fileID: 2800000, guid: 8faf31424ed312d43b59a07bf75c398e, type: 3}
        m_Scale: {x: 2, y: 2}
        m_Offset: {x: 0, y: 0}
    - _ReflectionTex:
        m_Texture: {fileID: 0}
        m_Scale: {x: 1, y: 1}
        m_Offset: {x: 0, y: 0}
    - _WavesNormal:
        m_Texture: {fileID: 2800000, guid: 8322b723f17dc4a4a8a5dbddb0f787c7, type: 3}
        m_Scale: {x: 2, y: 2}
        m_Offset: {x: 0, y: 0}
    - _node_1623:
        m_Texture: {fileID: 2800000, guid: 8cc1863f1aa7e2e418da68cae212ffc7, type: 3}
        m_Scale: {x: 1, y: 1}
        m_Offset: {x: 0, y: 0}
    - _node_638:
        m_Texture: {fileID: 0}
        m_Scale: {x: 1, y: 1}
        m_Offset: {x: 0, y: 0}
    - _texcoord:
        m_Texture: {fileID: 0}
        m_Scale: {x: 1, y: 1}
        m_Offset: {x: 0, y: 0}
    m_Floats:
    - _ColorPosition0: 5.25
    - _ColorPosition1: 8.88
    - _Cutoff: 0.5
    - _DepthOpacity: 5
    - _FoamDistance: 4.72
    - _FoamScale: 30
    - _FoamScale_copy: 30
    - _FoamSpeed: 0.025
    - _FoamSpeed2: 0.2
    - _FoamSpeed_copy: 0.025
    - _FresnelExponent: 8.1
    - _LightColorIntensity: 0.5
    - _Lights: 1
    - _MainFoamDistance: 10
    - _MainFoamOpacity: 0.71
    - _MainFoamPower: 1
    - _MainFoamScale: 30
    - _MainFoamSpeed: 0.025
    - _Normals: 0
    - _NormalsIntensity: 4.73
    - _NormalsScale: 5
    - _Opacity: 0.83
    - _RealtimeReflections: 0
    - _ReflectionsIntensity: 0
    - _RefractionIntensity: 2
    - _SecondaryFoamDistance: 1.35
    - _SecondaryFoamIntensity: 0.3
    - _SecondaryFoamPower: 0
    - _SecondaryFoamScale: 30
    - _SecondaryFoamSpeed: 0.025
    - _SpecularExponent: 0.015
    - _SpecularIntensity: 0.264
    - _TurbulenceDistortionIntensity: 1.11
    - _TurbulenceScale: 10
    - _VertexOffset: 1
    - _WaveDistortionIntensity: 4
    - _WavesAmplitude: 0
    - _WavesIntensity: 0.01
    - _WavesSpeed: 1
    - __dirty: 1
    - _isSpecularNormalIntensity: 1
    - _node_1043: 2.8
    - _node_3913: 30
    - _node_4994: 0.1
    - _node_6106: 2.04
    - _node_7898: 1
    - _node_8203: 0.324
    - _node_8447: 2
    - _node_9315: 1
    m_Colors:
    - _DepthColor0: {r: 0.7803922, g: 1, b: 0.854902, a: 1}
    - _DepthColor1: {r: 0.56376827, g: 0.9716981, b: 0.68729025, a: 1}
    - _DepthColor2: {r: 0.44201672, g: 0.7264151, b: 0.5393109, a: 1}
    - _FoamColor: {r: 1, g: 1, b: 1, a: 0}
    - _FresnelColor: {r: 0.41568625, g: 0.9234142, b: 0.94509804, a: 0}
    - _node_4409: {r: 0.5, g: 0.5, b: 0.5, a: 1}
    - _node_9308: {r: 1, g: 1, b: 1, a: 1}
  m_BuildTextureStacks: []
